{
    "title": "GraduationEvents",
    "model": "GraduationEvents",
    "searchExpression":"indexof(name, '${text}') ge 0 or indexof(graduationYear/alternateName, '${text}') ge 0 )",
    "columns": [
        {
          "name":"id",
          "property":"id",
          "hidden": true
        },
        {
          "name":"name",
          "property": "title",
          "title":"Graduation.GraduationTitle"
        },
        {
          "name":"graduationYear/alternateName",
          "property": "year",
          "title":"Graduation.Year"
        },
        {
          "name":"graduationPeriod/alternateName",
          "property": "period",
          "title":"Graduations.Period",
          "formatter": "TranslationFormatter",
          "formatString": "Periods.${value}"
        },
        {
          "name":"startDate",
          "property": "startDate",
          "title":"Graduations.GraduationDate",
          "formatter": "DateTimeFormatter",
          "formatString": "shortDate"
        },
        {
          "name":"validFrom",
          "property": "validFrom",
          "title":"Graduations.RequestPeriodStart",
          "formatter": "DateTimeFormatter",
          "formatString": "shortDate"
        },
        {
          "name":"validThrough",
          "property": "validThrough",
          "title":"Graduations.RequestPeriodEnd",
          "formatter": "DateTimeFormatter",
          "formatString": "shortDate"
        },
        {
          "name":"eventStatus/alternateName",
          "property": "eventStatus",
          "title":"Graduations.Status",
          "formatter": "TranslationFormatter",
          "formatString": "EventStatuses.${value}"
        },
       {
        "name": "id",
        "formatter": "ButtonFormatter",
        "formatString":"(modal:edit)",
        "className": "text-center",
        "formatOptions": {
          "buttonContent": "<i class=\"far fa-edit text-indigo\"></i>",
          "buttonClass": "btn btn-default"
        }
      }
    ],
    "defaults":{
      "orderBy": "graduationYear desc,graduationPeriod desc,name asc"
    },
    "criteria": [
      {
        "name": "title",
        "filter": "(indexof(name, '${value}') ge 0)",
        "type": "text"
      },
      {
        "name": "yearId",
        "filter": "(graduationYear/id eq '${value}')",
        "type": "text"
      },
      {
        "name": "period",
        "filter": "(graduationPeriod/alternateName eq '${value}')",
        "type": "text"
      },
      {
        "name": "currentYear",
        "filter": "(graduationYear eq '${currentYear}')",
        "type": "text"
      },
      {
        "name": "eventStatus",
        "filter": "(eventStatus eq '${value}')",
        "type": "text"
      }
    ]
}
